{
"request": {
	"user_name": "Andrew Sarris",
	"ratings": [{
    "item_id": 3315342,
    "rating": 8
  },
  {
    "item_id": 3874544,
    "rating": 2
  },
  {
    "item_id": 3922818,
    "rating": 2
  },
  {
    "item_id": 1730768,
    "rating": 2
  },
  {
    "item_id": 3462710,
    "rating": 7
  }]
}
}